<?xml version="1.0" encoding="UTF-8" standalone="no"?>
<svg width="35px" height="35px" viewBox="0 0 35 35" version="1.1" xmlns="http://www.w3.org/2000/svg" xmlns:xlink="http://www.w3.org/1999/xlink">
    <!-- Generator: Sketch 3.8.3 (29802) - http://www.bohemiancoding.com/sketch -->
    <title>Group 5</title>
    <desc>Created with Sketch.</desc>
    <defs>
        <rect id="path-1" x="0" y="0" width="31.8297872" height="18"></rect>
        <mask id="mask-3" maskContentUnits="userSpaceOnUse" maskUnits="objectBoundingBox" x="-1" y="-1" width="33.8297872" height="20">
            <rect x="-1" y="-1" width="33.8297872" height="20" fill="white"></rect>
            <use xlink:href="#path-1" fill="black"></use>
        </mask>
        <rect id="path-4" x="0" y="0" width="31.8297872" height="6.4"></rect>
        <rect id="path-6" x="0.870545781" y="4.16636196" width="31.8297872" height="6.4" rx="2"></rect>
        <mask id="mask-8" maskContentUnits="userSpaceOnUse" maskUnits="objectBoundingBox" x="-1" y="-1" width="33.8297872" height="8.4">
            <rect x="-0.129454219" y="3.16636196" width="33.8297872" height="8.4" fill="white"></rect>
            <use xlink:href="#path-6" fill="black"></use>
        </mask>
    </defs>
    <g id="Welcome" stroke="none" stroke-width="1" fill="none" fill-rule="evenodd">
        <g id="Alert-Notification" transform="translate(-461.000000, -180.000000)">
            <g id="Group-11" transform="translate(461.000000, 180.000000)">
                <g id="Group-5">
                    <g id="Rectangle-988-Copy" transform="translate(2.170213, 16.000000)">
                        <mask id="mask-2" fill="white">
                            <use xlink:href="#path-1"></use>
                        </mask>
                        <g id="Mask">
                            <use fill="#373535" fill-rule="evenodd" xlink:href="#path-1"></use>
                            <use stroke="#E3E1E1" mask="url(#mask-3)" stroke-width="2" xlink:href="#path-1"></use>
                        </g>
                    </g>
                    <g id="Rectangle-1012-+-Rectangle-1012-Copy-+-Rectangle-1012-Copy-2-Mask" transform="translate(2.170213, 16.000000)">
                        <mask id="mask-5" fill="white">
                            <use xlink:href="#path-4"></use>
                        </mask>
                        <g id="Mask">
                            <use fill="#F7F3BF" fill-rule="evenodd" xlink:href="#path-4"></use>
                            <use xlink:href="#path-4"></use>
                        </g>
                        <rect id="Rectangle-1012" fill="#373636" mask="url(#mask-5)" transform="translate(26.005895, 3.864829) rotate(31.000000) translate(-26.005895, -3.864829) " x="23.8356823" y="-2.93517098" width="4.34042553" height="13.6"></rect>
                        <rect id="Rectangle-1012-Copy" fill="#373636" mask="url(#mask-5)" transform="translate(16.601640, 3.864829) rotate(31.000000) translate(-16.601640, -3.864829) " x="14.431427" y="-2.93517098" width="4.34042553" height="13.6"></rect>
                        <rect id="Rectangle-1012-Copy-2" fill="#373636" mask="url(#mask-5)" transform="translate(7.197384, 3.864829) rotate(31.000000) translate(-7.197384, -3.864829) " x="5.02717167" y="-2.93517098" width="4.34042553" height="13.6"></rect>
                    </g>
                    <g id="Rectangle-1009-+-Rectangle-1009-Copy-+-Rectangle-1009-Copy-2-Mask">
                        <mask id="mask-7" fill="white">
                            <use xlink:href="#path-6"></use>
                        </mask>
                        <g id="Mask" transform="translate(16.785439, 7.366362) rotate(-13.000000) translate(-16.785439, -7.366362) ">
                            <use fill="#F7F2BF" fill-rule="evenodd" xlink:href="#path-6"></use>
                            <use stroke="#E3E1E1" mask="url(#mask-8)" stroke-width="2" xlink:href="#path-6"></use>
                        </g>
                        <rect id="Rectangle-1009" fill="#373636" mask="url(#mask-7)" transform="translate(8.444514, 11.007747) rotate(-44.000000) translate(-8.444514, -11.007747) " x="6.27430127" y="4.20774705" width="4.34042553" height="13.6"></rect>
                        <rect id="Rectangle-1009-Copy" fill="#373636" mask="url(#mask-7)" transform="translate(17.361702, 8.400000) rotate(-44.000000) translate(-17.361702, -8.400000) " x="15.1914894" y="1.6" width="4.34042553" height="13.6"></rect>
                        <rect id="Rectangle-1009-Copy-2" fill="#373636" mask="url(#mask-7)" transform="translate(26.765957, 6.000000) rotate(-44.000000) translate(-26.765957, -6.000000) " x="24.5957447" y="-0.8" width="4.34042553" height="13.6"></rect>
                    </g>
                </g>
            </g>
        </g>
    </g>
</svg>