<?xml version="1.0" encoding="UTF-8" standalone="no"?>
<svg width="10px" height="10px" viewBox="0 0 10 10" version="1.1" xmlns="http://www.w3.org/2000/svg" xmlns:xlink="http://www.w3.org/1999/xlink">
    <!-- Generator: Sketch 3.8.3 (29802) - http://www.bohemiancoding.com/sketch -->
    <title>like</title>
    <desc>Created with Sketch.</desc>
    <defs></defs>
    <g id="Welcome" stroke="none" stroke-width="1" fill="none" fill-rule="evenodd">
        <g id="Movie-Hovers" transform="translate(-267.000000, -787.000000)" fill="#FFFFFF">
            <g id="like" transform="translate(267.000000, 787.000000)">
                <g id="Capa_1">
                    <path d="M9.50308008,3.68501062 C9.25051335,3.46208068 8.93429158,3.34106157 8.61396304,3.34106157 L8.28952772,3.34106157 L7.1211499,3.34106157 L6.45585216,3.34106157 L6.45585216,1.7295966 C6.45585216,1.05231423 6.26488706,0.563991507 5.88706366,0.277367304 C5.28952772,-0.176985138 4.4661191,0.0820382166 4.4312115,0.0947770701 C4.32854209,0.128747346 4.2587269,0.22641189 4.2587269,0.336815287 L4.2587269,2.13936306 C4.2587269,2.72747346 3.98767967,3.22641189 3.45174538,3.62343949 C3.0513347,3.92067941 2.64271047,4.05019108 2.59958932,4.06505308 L2.54004107,4.07991507 C2.45174538,3.92492569 2.28952772,3.82089172 2.1026694,3.82089172 L0.507186858,3.82089172 C0.227926078,3.82089172 0,4.05656051 0,4.34530786 L0,9.19456476 C0,9.4833121 0.227926078,9.71898089 0.507186858,9.71898089 L2.10677618,9.71898089 C2.26283368,9.71898089 2.40451745,9.64467091 2.49691992,9.53002123 C2.75359343,9.81239915 3.11704312,9.98861996 3.51129363,9.98861996 L4.86447639,9.98861996 L5.00410678,9.98861996 L7.77823409,9.98861996 C8.72073922,9.98861996 9.32238193,9.47906582 9.42915811,8.58734607 L9.98151951,5.04382166 C10.0574949,4.53426752 9.87474333,4.01197452 9.50308008,3.68501062 L9.50308008,3.68501062 Z M2.11909651,9.19456476 C2.11909651,9.20305732 2.11293634,9.20942675 2.10472279,9.20942675 L0.507186858,9.20942675 C0.498973306,9.20942675 0.492813142,9.20305732 0.492813142,9.19456476 L0.492813142,4.34530786 C0.492813142,4.33681529 0.498973306,4.33044586 0.507186858,4.33044586 L2.10677618,4.33044586 C2.11498973,4.33044586 2.1211499,4.33681529 2.1211499,4.34530786 L2.1211499,9.19456476 L2.11909651,9.19456476 L2.11909651,9.19456476 Z M9.49075975,4.96314225 L8.94045175,8.51303609 C8.94045175,8.51515924 8.94045175,8.51940552 8.93839836,8.5236518 C8.862423,9.15847134 8.47227926,9.48118896 7.7761807,9.48118896 L5.00205339,9.48118896 L4.862423,9.48118896 L3.50924025,9.48118896 C3.07186858,9.48118896 2.69199179,9.14360934 2.62422998,8.69774947 C2.62217659,8.68288747 2.61806982,8.66802548 2.61396304,8.65316348 L2.61396304,4.58522293 L2.72073922,4.55974522 C2.724846,4.55974522 2.72689938,4.55762208 2.73100616,4.55762208 C2.75154004,4.55125265 3.23819302,4.40900212 3.72895277,4.04806794 C4.40041068,3.55549894 4.75359343,2.8952017 4.75359343,2.13936306 L4.75359343,0.540636943 C4.96714579,0.504543524 5.33264887,0.485435244 5.59753593,0.6892569 C5.83983573,0.873970276 5.96303901,1.22428875 5.96303901,1.7295966 L5.96303901,3.5937155 C5.96303901,3.73384289 6.07392197,3.84849257 6.20944559,3.84849257 L7.1211499,3.84849257 L8.28952772,3.84849257 L8.61396304,3.84849257 C8.81724846,3.84849257 9.02053388,3.92704883 9.18275154,4.07142251 C9.42505133,4.28585987 9.54414784,4.62768577 9.49075975,4.96314225 L9.49075975,4.96314225 Z" id="Shape"></path>
                </g>
            </g>
        </g>
    </g>
</svg>