<?xml version="1.0" encoding="UTF-8" standalone="no"?>
<svg width="26px" height="26px" viewBox="0 0 26 26" version="1.1" xmlns="http://www.w3.org/2000/svg" xmlns:xlink="http://www.w3.org/1999/xlink">
    <!-- Generator: Sketch 3.8.3 (29802) - http://www.bohemiancoding.com/sketch -->
    <title>Page 1</title>
    <desc>Created with Sketch.</desc>
    <defs></defs>
    <g id="Symbols" stroke="none" stroke-width="1" fill="none" fill-rule="evenodd">
        <g id="Play-button">
            <g id="Page-1">
                <path d="M10.8767905,7.81399048 C9.87269524,7.23827619 9.05802857,7.70999048 9.05802857,8.86760952 L9.05802857,17.4104667 C9.05802857,18.5705619 9.87269524,19.0410381 10.8767905,18.4653238 L18.3437429,14.1827524 C19.3490762,13.6070381 19.3490762,12.6722762 18.3437429,12.0965619 L10.8767905,7.81399048 Z" id="Fill-1" fill="#221F20"></path>
                <path d="M24.990581,12.8048762 C24.990581,19.5351619 19.5342952,24.9902095 12.8052476,24.9902095 C6.0749619,24.9902095 0.61867619,19.5351619 0.61867619,12.8048762 C0.61867619,6.07459048 6.0749619,0.619542857 12.8052476,0.619542857 C19.5342952,0.619542857 24.990581,6.07459048 24.990581,12.8048762 L24.990581,12.8048762 Z" id="Stroke-3" stroke="#221F20"></path>
            </g>
        </g>
    </g>
</svg>