<?xml version="1.0" encoding="UTF-8" standalone="no"?>
<svg width="33px" height="33px" viewBox="0 0 33 33" version="1.1" xmlns="http://www.w3.org/2000/svg" xmlns:xlink="http://www.w3.org/1999/xlink">
    <!-- Generator: Sketch 3.8.3 (29802) - http://www.bohemiancoding.com/sketch -->
    <title>verified</title>
    <desc>Created with Sketch.</desc>
    <defs></defs>
    <g id="Welcome" stroke="none" stroke-width="1" fill="none" fill-rule="evenodd">
        <g id="Alert-Notification" transform="translate(-483.000000, -559.000000)">
            <g id="Group-17" transform="translate(484.000000, 558.000000)">
                <g id="verified" transform="translate(0.000000, 2.000000)">
                    <g id="Group-15">
                        <path d="M15.3079203,30.6158405 C23.7622512,30.6158405 30.6158405,23.7622512 30.6158405,15.3079203 C30.6158405,6.85358935 23.7622512,0 15.3079203,0 C6.85358935,0 0,6.85358935 0,15.3079203 C0,23.7622512 6.85358935,30.6158405 15.3079203,30.6158405 Z" id="Oval-2" stroke="#9B9B9B" fill="#CF2A3E"></path>
                        <g id="Group-14" transform="translate(8.000000, 8.000000)" stroke="#FFFFFF" stroke-width="2.5">
                            <path d="M0.813476562,0.823242188 L13.3818359,13.4667969" id="Path-105"></path>
                            <path d="M0.813476562,0.823242188 L13.3818359,13.4667969" id="Path-105-Copy" transform="translate(7.097656, 7.145020) scale(-1, 1) translate(-7.097656, -7.145020) "></path>
                        </g>
                    </g>
                </g>
            </g>
        </g>
    </g>
</svg>