<?xml version="1.0" encoding="UTF-8" standalone="no"?>
<svg width="19px" height="17px" viewBox="0 0 19 17" version="1.1" xmlns="http://www.w3.org/2000/svg" xmlns:xlink="http://www.w3.org/1999/xlink">
    <!-- Generator: Sketch 3.8.3 (29802) - http://www.bohemiancoding.com/sketch -->
    <title>Group 3</title>
    <desc>Created with Sketch.</desc>
    <defs></defs>
    <g id="Welcome" stroke="none" stroke-width="1" fill="none" fill-rule="evenodd">
        <g id="Home-Desktop" transform="translate(-261.000000, -765.000000)" fill="#EE4036">
            <g id="Group-5" transform="translate(61.000000, 742.000000)">
                <g id="Group-4" transform="translate(200.796813, 23.000000)">
                    <g id="Group-3">
                        <g id="heart">
                            <g id="Capa_1">
                                <path d="M8.8141364,2.79874286 C13.5742864,-5.18091429 26.0118772,6.66745714 8.8141364,16.1976857 C-8.38208577,6.66745714 4.05474572,-5.18091429 8.8141364,2.79874286 Z" id="Shape"></path>
                            </g>
                        </g>
                    </g>
                </g>
            </g>
        </g>
    </g>
</svg>