<?xml version="1.0" encoding="UTF-8" standalone="no"?>
<svg width="7px" height="8px" viewBox="0 0 7 8" version="1.1" xmlns="http://www.w3.org/2000/svg" xmlns:xlink="http://www.w3.org/1999/xlink">
    <!-- Generator: Sketch 3.8.3 (29802) - http://www.bohemiancoding.com/sketch -->
    <title>+ copy</title>
    <desc>Created with Sketch.</desc>
    <defs></defs>
    <g id="Welcome" stroke="none" stroke-width="1" fill="none" fill-rule="evenodd" font-size="15" font-family="Montserrat-Light, Montserrat" font-weight="300">
        <g id="Favorites" transform="translate(-1030.000000, -222.000000)" fill="#9B9B9B">
            <text id="+-copy">
                <tspan x="1030" y="231">+</tspan>
            </text>
        </g>
    </g>
</svg>